Project1__kr2607
…
head(sort(spooky$punct,decreasing=T))

## [1] 9339 6099 4551 4452 3699 3089

max<-spooky[spooky$punct==9339,]
max<-max$text

get_sentiments()

## # A tibble: 2,476 x 2
##    word       score
##    <chr>      <int>
##  1 abandon       -2
##  2 abandoned     -2
##  3 abandons      -2
##  4 abducted      -2
##  5 abduction     -2
##  6 abductions    -2
##  7 abhor         -3
##  8 abhorred      -3
##  9 abhorrent     -3
## 10 abhors        -3
## # ... with 2,466 more rows
…
Sentiment Analysis

# Keep words that have been classified within the NRC lexicon.
get_sentiments('nrc')

## # A tibble: 13,901 x 2
##    word        sentiment
##    <chr>       <chr>    
##  1 abacus      trust    
##  2 abandon     fear     
##  3 abandon     negative 
##  4 abandon     sadness  
##  5 abandoned   anger    
##  6 abandoned   fear     
##  7 abandoned   negative 
##  8 abandoned   sadness  
##  9 abandonment anger    
## 10 abandonment fear     
## # ... with 13,891 more rows
…
count(sentiments, author, sentiment)

## # A tibble: 30 x 3
##    author sentiment        n
##    <fct>  <chr>        <int>
##  1 EAP    anger         2962
##  2 EAP    anticipation  3982
##  3 EAP    disgust       2261
##  4 EAP    fear          4194
##  5 EAP    joy           3302
##  6 EAP    negative      7659
##  7 EAP    positive      9291
##  8 EAP    sadness       3938
##  9 EAP    surprise      2245
## 10 EAP    trust         5116
## # ... with 20 more rows
…
Comparing Positivity

Lets only study the positive words. Note that the amount of postive words attributed to each author varies greatly, and the relative frequency of positive words to the other sentiments also varies between authors.

nrc_pos <- filter(get_sentiments('nrc'), sentiment == "positive")
nrc_pos

## # A tibble: 2,312 x 2
##    word           sentiment
##    <chr>          <chr>    
##  1 abba           positive 
##  2 ability        positive 
##  3 abovementioned positive 
##  4 absolute       positive 
##  5 absolution     positive 
##  6 absorbed       positive 
##  7 abundance      positive 
##  8 abundant       positive 
##  9 academic       positive 
## 10 academy        positive 
## # ... with 2,302 more rows

positive <- inner_join(spooky_wrd, nrc_pos, by = "word")
head(positive)

##        id author     word word_length sentiment
## 1 id11008    EAP     gold           4  positive
## 2 id27763    MWS   lovely           6  positive
## 3 id27763    MWS  fertile           7  positive
## 4 id27763    MWS    happy           5  positive
## 5 id27763    MWS cheering           8  positive
## 6 id27763    MWS     fair           4  positive

count(positive, word, sort = TRUE)

## # A tibble: 1,690 x 2
##    word       n
##    <chr>  <int>
##  1 found    559
##  2 love     331
##  3 friend   270
##  4 sea      243
##  5 spirit   202
##  6 hope     195
##  7 sun      167
##  8 beauty   154
##  9 true     154
## 10 white    147
## # ... with 1,680 more rows
…
## [1] 19467

length(unique(spooky_wrd$word))

## [1] 24957

The matrix spooky_wrd_tm is a sparse matrix with 19467 rows, corresponding to the 19467 ids (or originally, sentences) in the spooky_wrd dataframe, and 24941 columns corresponding to the total number of unique words in the spooky_wrd dataframe. So each row of spooky_wrd_tm corresponds to one of the original sentences. The value of the matrix at a certain position is then the number of occurences of that word (determined by the column) in this specific sentence (determined by the row). Since most sentence/word pairings dont occur, the matrix is sparse meaning there are many zeros.

For LDA we must pick the number of possible topics. Lets try 12, though this selection is admittedly arbitrary.

spooky_wrd_lda    <- LDA(spooky_wrd_tm, k = 12, control = list(seed = 1234))
spooky_wrd_topics <- tidy(spooky_wrd_lda, matrix = "beta")
spooky_wrd_topics

## # A tibble: 299,484 x 3
##    topic term         beta
##    <int> <chr>       <dbl>
##  1     1 content 0.000146 
##  2     2 content 0.000132 
##  3     3 content 0.0000543
##  4     4 content 0.0000710
##  5     5 content 0.000177 
##  6     6 content 0.000316 
##  7     7 content 0.000192 
##  8     8 content 0.000209 
##  9     9 content 0.0000710
## 10    10 content 0.000224 
## # ... with 299,474 more rows
…
Sentence Topics

Above we look at the words representing each topic, we can also study the topics representing each documents, or in our case sentence. We use the tidy function to extract the per-document-per-topic probabilities, called gamma or \(\gamma\), for the model.

spooky_wrd_docs <- tidy(spooky_wrd_lda, matrix = "gamma")
spooky_wrd_docs

## # A tibble: 233,604 x 3
##    document topic  gamma
##    <chr>    <int>  <dbl>
##  1 id00001      1 0.0835
##  2 id00002      1 0.0846
##  3 id00003      1 0.0828
##  4 id00004      1 0.0834
##  5 id00005      1 0.0825
##  6 id00006      1 0.0835
##  7 id00007      1 0.0847
##  8 id00009      1 0.0832
##  9 id00010      1 0.0828
## 10 id00012      1 0.0828
## # ... with 233,594 more rows
…
